%YAML 1.1
%TAG !u! tag:unity3d.com,2011:
--- !u!1 &5131868116886849978
GameObject:
  m_ObjectHideFlags: 0
  m_CorrespondingSourceObject: {fileID: 0}
  m_PrefabInstance: {fileID: 0}
  m_PrefabAsset: {fileID: 0}
  serializedVersion: 6
  m_Component:
  - component: {fileID: 2084166624738206769}
  - component: {fileID: 4573215227529289993}
  - component: {fileID: 129887723679713110}
  m_Layer: 31
  m_Name: Layer1
  m_TagString: Untagged
  m_Icon: {fileID: 0}
  m_NavMeshLayer: 0
  m_StaticEditorFlags: 0
  m_IsActive: 1
--- !u!4 &2084166624738206769
Transform:
  m_ObjectHideFlags: 0
  m_CorrespondingSourceObject: {fileID: 0}
  m_PrefabInstance: {fileID: 0}
  m_PrefabAsset: {fileID: 0}
  m_GameObject: {fileID: 5131868116886849978}
  m_LocalRotation: {x: -0, y: -0, z: -0, w: 1}
  m_LocalPosition: {x: 0, y: 0, z: 0}
  m_LocalScale: {x: 1, y: 1, z: 1}
  m_Children: []
  m_Father: {fileID: 1865578796898546717}
  m_RootOrder: 0
  m_LocalEulerAnglesHint: {x: 0, y: 0, z: 0}
--- !u!1839735485 &4573215227529289993
Tilemap:
  m_ObjectHideFlags: 0
  m_CorrespondingSourceObject: {fileID: 0}
  m_PrefabInstance: {fileID: 0}
  m_PrefabAsset: {fileID: 0}
  m_GameObject: {fileID: 5131868116886849978}
  m_Enabled: 1
  m_Tiles:
  - first: {x: -8, y: -13, z: 0}
    second:
      serializedVersion: 2
      m_TileIndex: 120
      m_TileSpriteIndex: 120
      m_TileMatrixIndex: 0
      m_TileColorIndex: 0
      m_TileObjectToInstantiateIndex: 65535
      m_AllTileFlags: 1073741825
  - first: {x: -7, y: -13, z: 0}
    second:
      serializedVersion: 2
      m_TileIndex: 121
      m_TileSpriteIndex: 121
      m_TileMatrixIndex: 0
      m_TileColorIndex: 0
      m_TileObjectToInstantiateIndex: 65535
      m_AllTileFlags: 1073741825
  - first: {x: -2, y: -13, z: 0}
    second:
      serializedVersion: 2
      m_TileIndex: 122
      m_TileSpriteIndex: 122
      m_TileMatrixIndex: 0
      m_TileColorIndex: 0
      m_TileObjectToInstantiateIndex: 65535
      m_AllTileFlags: 1073741825
  - first: {x: -1, y: -13, z: 0}
    second:
      serializedVersion: 2
      m_TileIndex: 123
      m_TileSpriteIndex: 123
      m_TileMatrixIndex: 0
      m_TileColorIndex: 0
      m_TileObjectToInstantiateIndex: 65535
      m_AllTileFlags: 1073741825
  - first: {x: 0, y: -13, z: 0}
    second:
      serializedVersion: 2
      m_TileIndex: 124
      m_TileSpriteIndex: 124
      m_TileMatrixIndex: 0
      m_TileColorIndex: 0
      m_TileObjectToInstantiateIndex: 65535
      m_AllTileFlags: 1073741825
  - first: {x: 2, y: -13, z: 0}
    second:
      serializedVersion: 2
      m_TileIndex: 125
      m_TileSpriteIndex: 125
      m_TileMatrixIndex: 0
      m_TileColorIndex: 0
      m_TileObjectToInstantiateIndex: 65535
      m_AllTileFlags: 1073741825
  - first: {x: 3, y: -13, z: 0}
    second:
      serializedVersion: 2
      m_TileIndex: 126
      m_TileSpriteIndex: 126
      m_TileMatrixIndex: 0
      m_TileColorIndex: 0
      m_TileObjectToInstantiateIndex: 65535
      m_AllTileFlags: 1073741825
  - first: {x: 4, y: -13, z: 0}
    second:
      serializedVersion: 2
      m_TileIndex: 127
      m_TileSpriteIndex: 127
      m_TileMatrixIndex: 0
      m_TileColorIndex: 0
      m_TileObjectToInstantiateIndex: 65535
      m_AllTileFlags: 1073741825
  - first: {x: -10, y: -12, z: 0}
    second:
      serializedVersion: 2
      m_TileIndex: 110
      m_TileSpriteIndex: 110
      m_TileMatrixIndex: 0
      m_TileColorIndex: 0
      m_TileObjectToInstantiateIndex: 65535
      m_AllTileFlags: 1073741825
  - first: {x: -8, y: -12, z: 0}
    second:
      serializedVersion: 2
      m_TileIndex: 111
      m_TileSpriteIndex: 111
      m_TileMatrixIndex: 0
      m_TileColorIndex: 0
      m_TileObjectToInstantiateIndex: 65535
      m_AllTileFlags: 1073741825
  - first: {x: -7, y: -12, z: 0}
    second:
      serializedVersion: 2
      m_TileIndex: 112
      m_TileSpriteIndex: 112
      m_TileMatrixIndex: 0
      m_TileColorIndex: 0
      m_TileObjectToInstantiateIndex: 65535
      m_AllTileFlags: 1073741825
  - first: {x: -2, y: -12, z: 0}
    second:
      serializedVersion: 2
      m_TileIndex: 113
      m_TileSpriteIndex: 113
      m_TileMatrixIndex: 0
      m_TileColorIndex: 0
      m_TileObjectToInstantiateIndex: 65535
      m_AllTileFlags: 1073741825
  - first: {x: -1, y: -12, z: 0}
    second:
      serializedVersion: 2
      m_TileIndex: 114
      m_TileSpriteIndex: 114
      m_TileMatrixIndex: 0
      m_TileColorIndex: 0
      m_TileObjectToInstantiateIndex: 65535
      m_AllTileFlags: 1073741825
  - first: {x: 0, y: -12, z: 0}
    second:
      serializedVersion: 2
      m_TileIndex: 115
      m_TileSpriteIndex: 115
      m_TileMatrixIndex: 0
      m_TileColorIndex: 0
      m_TileObjectToInstantiateIndex: 65535
      m_AllTileFlags: 1073741825
  - first: {x: 2, y: -12, z: 0}
    second:
      serializedVersion: 2
      m_TileIndex: 116
      m_TileSpriteIndex: 116
      m_TileMatrixIndex: 0
      m_TileColorIndex: 0
      m_TileObjectToInstantiateIndex: 65535
      m_AllTileFlags: 1073741825
  - first: {x: 3, y: -12, z: 0}
    second:
      serializedVersion: 2
      m_TileIndex: 117
      m_TileSpriteIndex: 117
      m_TileMatrixIndex: 0
      m_TileColorIndex: 0
      m_TileObjectToInstantiateIndex: 65535
      m_AllTileFlags: 1073741825
  - first: {x: 4, y: -12, z: 0}
    second:
      serializedVersion: 2
      m_TileIndex: 118
      m_TileSpriteIndex: 118
      m_TileMatrixIndex: 0
      m_TileColorIndex: 0
      m_TileObjectToInstantiateIndex: 65535
      m_AllTileFlags: 1073741825
  - first: {x: 6, y: -12, z: 0}
    second:
      serializedVersion: 2
      m_TileIndex: 119
      m_TileSpriteIndex: 119
      m_TileMatrixIndex: 0
      m_TileColorIndex: 0
      m_TileObjectToInstantiateIndex: 65535
      m_AllTileFlags: 1073741825
  - first: {x: -10, y: -10, z: 0}
    second:
      serializedVersion: 2
      m_TileIndex: 98
      m_TileSpriteIndex: 98
      m_TileMatrixIndex: 0
      m_TileColorIndex: 0
      m_TileObjectToInstantiateIndex: 65535
      m_AllTileFlags: 1073741825
  - first: {x: -9, y: -10, z: 0}
    second:
      serializedVersion: 2
      m_TileIndex: 99
      m_TileSpriteIndex: 99
      m_TileMatrixIndex: 0
      m_TileColorIndex: 0
      m_TileObjectToInstantiateIndex: 65535
      m_AllTileFlags: 1073741825
  - first: {x: -7, y: -10, z: 0}
    second:
      serializedVersion: 2
      m_TileIndex: 100
      m_TileSpriteIndex: 100
      m_TileMatrixIndex: 0
      m_TileColorIndex: 0
      m_TileObjectToInstantiateIndex: 65535
      m_AllTileFlags: 1073741825
  - first: {x: -6, y: -10, z: 0}
    second:
      serializedVersion: 2
      m_TileIndex: 101
      m_TileSpriteIndex: 101
      m_TileMatrixIndex: 0
      m_TileColorIndex: 0
      m_TileObjectToInstantiateIndex: 65535
      m_AllTileFlags: 1073741825
  - first: {x: -1, y: -10, z: 0}
    second:
      serializedVersion: 2
      m_TileIndex: 102
      m_TileSpriteIndex: 102
      m_TileMatrixIndex: 0
      m_TileColorIndex: 0
      m_TileObjectToInstantiateIndex: 65535
      m_AllTileFlags: 1073741825
  - first: {x: 0, y: -10, z: 0}
    second:
      serializedVersion: 2
      m_TileIndex: 103
      m_TileSpriteIndex: 103
      m_TileMatrixIndex: 0
      m_TileColorIndex: 0
      m_TileObjectToInstantiateIndex: 65535
      m_AllTileFlags: 1073741825
  - first: {x: 1, y: -10, z: 0}
    second:
      serializedVersion: 2
      m_TileIndex: 104
      m_TileSpriteIndex: 104
      m_TileMatrixIndex: 0
      m_TileColorIndex: 0
      m_TileObjectToInstantiateIndex: 65535
      m_AllTileFlags: 1073741825
  - first: {x: 3, y: -10, z: 0}
    second:
      serializedVersion: 2
      m_TileIndex: 105
      m_TileSpriteIndex: 105
      m_TileMatrixIndex: 0
      m_TileColorIndex: 0
      m_TileObjectToInstantiateIndex: 65535
      m_AllTileFlags: 1073741825
  - first: {x: 4, y: -10, z: 0}
    second:
      serializedVersion: 2
      m_TileIndex: 106
      m_TileSpriteIndex: 106
      m_TileMatrixIndex: 0
      m_TileColorIndex: 0
      m_TileObjectToInstantiateIndex: 65535
      m_AllTileFlags: 1073741825
  - first: {x: 6, y: -10, z: 0}
    second:
      serializedVersion: 2
      m_TileIndex: 107
      m_TileSpriteIndex: 107
      m_TileMatrixIndex: 0
      m_TileColorIndex: 0
      m_TileObjectToInstantiateIndex: 65535
      m_AllTileFlags: 1073741825
  - first: {x: 8, y: -10, z: 0}
    second:
      serializedVersion: 2
      m_TileIndex: 108
      m_TileSpriteIndex: 108
      m_TileMatrixIndex: 0
      m_TileColorIndex: 0
      m_TileObjectToInstantiateIndex: 65535
      m_AllTileFlags: 1073741825
  - first: {x: 10, y: -10, z: 0}
    second:
      serializedVersion: 2
      m_TileIndex: 109
      m_TileSpriteIndex: 109
      m_TileMatrixIndex: 0
      m_TileColorIndex: 0
      m_TileObjectToInstantiateIndex: 65535
      m_AllTileFlags: 1073741825
  - first: {x: -10, y: -9, z: 0}
    second:
      serializedVersion: 2
      m_TileIndex: 91
      m_TileSpriteIndex: 91
      m_TileMatrixIndex: 0
      m_TileColorIndex: 0
      m_TileObjectToInstantiateIndex: 65535
      m_AllTileFlags: 1073741825
  - first: {x: -9, y: -9, z: 0}
    second:
      serializedVersion: 2
      m_TileIndex: 92
      m_TileSpriteIndex: 92
      m_TileMatrixIndex: 0
      m_TileColorIndex: 0
      m_TileObjectToInstantiateIndex: 65535
      m_AllTileFlags: 1073741825
  - first: {x: -7, y: -9, z: 0}
    second:
      serializedVersion: 2
      m_TileIndex: 93
      m_TileSpriteIndex: 93
      m_TileMatrixIndex: 0
      m_TileColorIndex: 0
      m_TileObjectToInstantiateIndex: 65535
      m_AllTileFlags: 1073741825
  - first: {x: -6, y: -9, z: 0}
    second:
      serializedVersion: 2
      m_TileIndex: 94
      m_TileSpriteIndex: 94
      m_TileMatrixIndex: 0
      m_TileColorIndex: 0
      m_TileObjectToInstantiateIndex: 65535
      m_AllTileFlags: 1073741825
  - first: {x: 0, y: -9, z: 0}
    second:
      serializedVersion: 2
      m_TileIndex: 95
      m_TileSpriteIndex: 95
      m_TileMatrixIndex: 0
      m_TileColorIndex: 0
      m_TileObjectToInstantiateIndex: 65535
      m_AllTileFlags: 1073741825
  - first: {x: 3, y: -9, z: 0}
    second:
      serializedVersion: 2
      m_TileIndex: 96
      m_TileSpriteIndex: 96
      m_TileMatrixIndex: 0
      m_TileColorIndex: 0
      m_TileObjectToInstantiateIndex: 65535
      m_AllTileFlags: 1073741825
  - first: {x: 4, y: -9, z: 0}
    second:
      serializedVersion: 2
      m_TileIndex: 97
      m_TileSpriteIndex: 97
      m_TileMatrixIndex: 0
      m_TileColorIndex: 0
      m_TileObjectToInstantiateIndex: 65535
      m_AllTileFlags: 1073741825
  - first: {x: -9, y: -8, z: 0}
    second:
      serializedVersion: 2
      m_TileIndex: 83
      m_TileSpriteIndex: 83
      m_TileMatrixIndex: 0
      m_TileColorIndex: 0
      m_TileObjectToInstantiateIndex: 65535
      m_AllTileFlags: 1073741825
  - first: {x: -7, y: -8, z: 0}
    second:
      serializedVersion: 2
      m_TileIndex: 84
      m_TileSpriteIndex: 84
      m_TileMatrixIndex: 0
      m_TileColorIndex: 0
      m_TileObjectToInstantiateIndex: 65535
      m_AllTileFlags: 1073741825
  - first: {x: 0, y: -8, z: 0}
    second:
      serializedVersion: 2
      m_TileIndex: 85
      m_TileSpriteIndex: 85
      m_TileMatrixIndex: 0
      m_TileColorIndex: 0
      m_TileObjectToInstantiateIndex: 65535
      m_AllTileFlags: 1073741825
  - first: {x: 3, y: -8, z: 0}
    second:
      serializedVersion: 2
      m_TileIndex: 86
      m_TileSpriteIndex: 86
      m_TileMatrixIndex: 0
      m_TileColorIndex: 0
      m_TileObjectToInstantiateIndex: 65535
      m_AllTileFlags: 1073741825
  - first: {x: 4, y: -8, z: 0}
    second:
      serializedVersion: 2
      m_TileIndex: 87
      m_TileSpriteIndex: 87
      m_TileMatrixIndex: 0
      m_TileColorIndex: 0
      m_TileObjectToInstantiateIndex: 65535
      m_AllTileFlags: 1073741825
  - first: {x: 6, y: -8, z: 0}
    second:
      serializedVersion: 2
      m_TileIndex: 88
      m_TileSpriteIndex: 88
      m_TileMatrixIndex: 0
      m_TileColorIndex: 0
      m_TileObjectToInstantiateIndex: 65535
      m_AllTileFlags: 1073741825
  - first: {x: 7, y: -8, z: 0}
    second:
      serializedVersion: 2
      m_TileIndex: 89
      m_TileSpriteIndex: 89
      m_TileMatrixIndex: 0
      m_TileColorIndex: 0
      m_TileObjectToInstantiateIndex: 65535
      m_AllTileFlags: 1073741825
  - first: {x: 8, y: -8, z: 0}
    second:
      serializedVersion: 2
      m_TileIndex: 90
      m_TileSpriteIndex: 90
      m_TileMatrixIndex: 0
      m_TileColorIndex: 0
      m_TileObjectToInstantiateIndex: 65535
      m_AllTileFlags: 1073741825
  - first: {x: -10, y: -7, z: 0}
    second:
      serializedVersion: 2
      m_TileIndex: 78
      m_TileSpriteIndex: 78
      m_TileMatrixIndex: 0
      m_TileColorIndex: 0
      m_TileObjectToInstantiateIndex: 65535
      m_AllTileFlags: 1073741825
  - first: {x: -9, y: -7, z: 0}
    second:
      serializedVersion: 2
      m_TileIndex: 79
      m_TileSpriteIndex: 79
      m_TileMatrixIndex: 0
      m_TileColorIndex: 0
      m_TileObjectToInstantiateIndex: 65535
      m_AllTileFlags: 1073741825
  - first: {x: -7, y: -7, z: 0}
    second:
      serializedVersion: 2
      m_TileIndex: 80
      m_TileSpriteIndex: 80
      m_TileMatrixIndex: 0
      m_TileColorIndex: 0
      m_TileObjectToInstantiateIndex: 65535
      m_AllTileFlags: 1073741825
  - first: {x: -6, y: -7, z: 0}
    second:
      serializedVersion: 2
      m_TileIndex: 81
      m_TileSpriteIndex: 81
      m_TileMatrixIndex: 0
      m_TileColorIndex: 0
      m_TileObjectToInstantiateIndex: 65535
      m_AllTileFlags: 1073741825
  - first: {x: -2, y: -7, z: 0}
    second:
      serializedVersion: 2
      m_TileIndex: 82
      m_TileSpriteIndex: 82
      m_TileMatrixIndex: 0
      m_TileColorIndex: 0
      m_TileObjectToInstantiateIndex: 65535
      m_AllTileFlags: 1073741825
  - first: {x: -4, y: -6, z: 0}
    second:
      serializedVersion: 2
      m_TileIndex: 72
      m_TileSpriteIndex: 72
      m_TileMatrixIndex: 0
      m_TileColorIndex: 0
      m_TileObjectToInstantiateIndex: 65535
      m_AllTileFlags: 1073741825
  - first: {x: -2, y: -6, z: 0}
    second:
      serializedVersion: 2
      m_TileIndex: 73
      m_TileSpriteIndex: 73
      m_TileMatrixIndex: 0
      m_TileColorIndex: 0
      m_TileObjectToInstantiateIndex: 65535
      m_AllTileFlags: 1073741825
  - first: {x: 0, y: -6, z: 0}
    second:
      serializedVersion: 2
      m_TileIndex: 74
      m_TileSpriteIndex: 74
      m_TileMatrixIndex: 0
      m_TileColorIndex: 0
      m_TileObjectToInstantiateIndex: 65535
      m_AllTileFlags: 1073741825
  - first: {x: 4, y: -6, z: 0}
    second:
      serializedVersion: 2
      m_TileIndex: 75
      m_TileSpriteIndex: 75
      m_TileMatrixIndex: 0
      m_TileColorIndex: 0
      m_TileObjectToInstantiateIndex: 65535
      m_AllTileFlags: 1073741825
  - first: {x: 6, y: -6, z: 0}
    second:
      serializedVersion: 2
      m_TileIndex: 76
      m_TileSpriteIndex: 76
      m_TileMatrixIndex: 0
      m_TileColorIndex: 0
      m_TileObjectToInstantiateIndex: 65535
      m_AllTileFlags: 1073741825
  - first: {x: 8, y: -6, z: 0}
    second:
      serializedVersion: 2
      m_TileIndex: 77
      m_TileSpriteIndex: 77
      m_TileMatrixIndex: 0
      m_TileColorIndex: 0
      m_TileObjectToInstantiateIndex: 65535
      m_AllTileFlags: 1073741825
  - first: {x: -4, y: -5, z: 0}
    second:
      serializedVersion: 2
      m_TileIndex: 68
      m_TileSpriteIndex: 68
      m_TileMatrixIndex: 0
      m_TileColorIndex: 0
      m_TileObjectToInstantiateIndex: 65535
      m_AllTileFlags: 1073741825
  - first: {x: -2, y: -5, z: 0}
    second:
      serializedVersion: 2
      m_TileIndex: 69
      m_TileSpriteIndex: 69
      m_TileMatrixIndex: 0
      m_TileColorIndex: 0
      m_TileObjectToInstantiateIndex: 65535
      m_AllTileFlags: 1073741825
  - first: {x: 0, y: -5, z: 0}
    second:
      serializedVersion: 2
      m_TileIndex: 70
      m_TileSpriteIndex: 70
      m_TileMatrixIndex: 0
      m_TileColorIndex: 0
      m_TileObjectToInstantiateIndex: 65535
      m_AllTileFlags: 1073741825
  - first: {x: 2, y: -5, z: 0}
    second:
      serializedVersion: 2
      m_TileIndex: 71
      m_TileSpriteIndex: 71
      m_TileMatrixIndex: 0
      m_TileColorIndex: 0
      m_TileObjectToInstantiateIndex: 65535
      m_AllTileFlags: 1073741825
  - first: {x: -9, y: -3, z: 0}
    second:
      serializedVersion: 2
      m_TileIndex: 63
      m_TileSpriteIndex: 63
      m_TileMatrixIndex: 0
      m_TileColorIndex: 0
      m_TileObjectToInstantiateIndex: 65535
      m_AllTileFlags: 1073741825
  - first: {x: -7, y: -3, z: 0}
    second:
      serializedVersion: 2
      m_TileIndex: 64
      m_TileSpriteIndex: 64
      m_TileMatrixIndex: 0
      m_TileColorIndex: 0
      m_TileObjectToInstantiateIndex: 65535
      m_AllTileFlags: 1073741825
  - first: {x: 4, y: -3, z: 0}
    second:
      serializedVersion: 2
      m_TileIndex: 65
      m_TileSpriteIndex: 65
      m_TileMatrixIndex: 0
      m_TileColorIndex: 0
      m_TileObjectToInstantiateIndex: 65535
      m_AllTileFlags: 1073741825
  - first: {x: 6, y: -3, z: 0}
    second:
      serializedVersion: 2
      m_TileIndex: 66
      m_TileSpriteIndex: 66
      m_TileMatrixIndex: 0
      m_TileColorIndex: 0
      m_TileObjectToInstantiateIndex: 65535
      m_AllTileFlags: 1073741825
  - first: {x: 8, y: -3, z: 0}
    second:
      serializedVersion: 2
      m_TileIndex: 67
      m_TileSpriteIndex: 67
      m_TileMatrixIndex: 0
      m_TileColorIndex: 0
      m_TileObjectToInstantiateIndex: 65535
      m_AllTileFlags: 1073741825
  - first: {x: -10, y: -2, z: 0}
    second:
      serializedVersion: 2
      m_TileIndex: 56
      m_TileSpriteIndex: 56
      m_TileMatrixIndex: 0
      m_TileColorIndex: 0
      m_TileObjectToInstantiateIndex: 65535
      m_AllTileFlags: 1073741825
  - first: {x: -9, y: -2, z: 0}
    second:
      serializedVersion: 2
      m_TileIndex: 57
      m_TileSpriteIndex: 57
      m_TileMatrixIndex: 0
      m_TileColorIndex: 0
      m_TileObjectToInstantiateIndex: 65535
      m_AllTileFlags: 1073741825
  - first: {x: -7, y: -2, z: 0}
    second:
      serializedVersion: 2
      m_TileIndex: 58
      m_TileSpriteIndex: 58
      m_TileMatrixIndex: 0
      m_TileColorIndex: 0
      m_TileObjectToInstantiateIndex: 65535
      m_AllTileFlags: 1073741825
  - first: {x: -6, y: -2, z: 0}
    second:
      serializedVersion: 2
      m_TileIndex: 59
      m_TileSpriteIndex: 59
      m_TileMatrixIndex: 0
      m_TileColorIndex: 0
      m_TileObjectToInstantiateIndex: 65535
      m_AllTileFlags: 1073741825
  - first: {x: -4, y: -2, z: 0}
    second:
      serializedVersion: 2
      m_TileIndex: 60
      m_TileSpriteIndex: 60
      m_TileMatrixIndex: 0
      m_TileColorIndex: 0
      m_TileObjectToInstantiateIndex: 65535
      m_AllTileFlags: 1073741825
  - first: {x: -1, y: -2, z: 0}
    second:
      serializedVersion: 2
      m_TileIndex: 61
      m_TileSpriteIndex: 61
      m_TileMatrixIndex: 0
      m_TileColorIndex: 0
      m_TileObjectToInstantiateIndex: 65535
      m_AllTileFlags: 1073741825
  - first: {x: 0, y: -2, z: 0}
    second:
      serializedVersion: 2
      m_TileIndex: 62
      m_TileSpriteIndex: 62
      m_TileMatrixIndex: 0
      m_TileColorIndex: 0
      m_TileObjectToInstantiateIndex: 65535
      m_AllTileFlags: 1073741825
  - first: {x: 4, y: -1, z: 0}
    second:
      serializedVersion: 2
      m_TileIndex: 53
      m_TileSpriteIndex: 53
      m_TileMatrixIndex: 0
      m_TileColorIndex: 0
      m_TileObjectToInstantiateIndex: 65535
      m_AllTileFlags: 1073741825
  - first: {x: 6, y: -1, z: 0}
    second:
      serializedVersion: 2
      m_TileIndex: 54
      m_TileSpriteIndex: 54
      m_TileMatrixIndex: 0
      m_TileColorIndex: 0
      m_TileObjectToInstantiateIndex: 65535
      m_AllTileFlags: 1073741825
  - first: {x: 8, y: -1, z: 0}
    second:
      serializedVersion: 2
      m_TileIndex: 55
      m_TileSpriteIndex: 55
      m_TileMatrixIndex: 0
      m_TileColorIndex: 0
      m_TileObjectToInstantiateIndex: 65535
      m_AllTileFlags: 1073741825
  - first: {x: -10, y: 1, z: 0}
    second:
      serializedVersion: 2
      m_TileIndex: 44
      m_TileSpriteIndex: 44
      m_TileMatrixIndex: 0
      m_TileColorIndex: 0
      m_TileObjectToInstantiateIndex: 65535
      m_AllTileFlags: 1073741825
  - first: {x: -8, y: 1, z: 0}
    second:
      serializedVersion: 2
      m_TileIndex: 45
      m_TileSpriteIndex: 45
      m_TileMatrixIndex: 0
      m_TileColorIndex: 0
      m_TileObjectToInstantiateIndex: 65535
      m_AllTileFlags: 1073741825
  - first: {x: -6, y: 1, z: 0}
    second:
      serializedVersion: 2
      m_TileIndex: 46
      m_TileSpriteIndex: 46
      m_TileMatrixIndex: 0
      m_TileColorIndex: 0
      m_TileObjectToInstantiateIndex: 65535
      m_AllTileFlags: 1073741825
  - first: {x: -4, y: 1, z: 0}
    second:
      serializedVersion: 2
      m_TileIndex: 47
      m_TileSpriteIndex: 47
      m_TileMatrixIndex: 0
      m_TileColorIndex: 0
      m_TileObjectToInstantiateIndex: 65535
      m_AllTileFlags: 1073741825
  - first: {x: -2, y: 1, z: 0}
    second:
      serializedVersion: 2
      m_TileIndex: 48
      m_TileSpriteIndex: 48
      m_TileMatrixIndex: 0
      m_TileColorIndex: 0
      m_TileObjectToInstantiateIndex: 65535
      m_AllTileFlags: 1073741825
  - first: {x: 0, y: 1, z: 0}
    second:
      serializedVersion: 2
      m_TileIndex: 49
      m_TileSpriteIndex: 49
      m_TileMatrixIndex: 0
      m_TileColorIndex: 0
      m_TileObjectToInstantiateIndex: 65535
      m_AllTileFlags: 1073741825
  - first: {x: 4, y: 1, z: 0}
    second:
      serializedVersion: 2
      m_TileIndex: 50
      m_TileSpriteIndex: 50
      m_TileMatrixIndex: 0
      m_TileColorIndex: 0
      m_TileObjectToInstantiateIndex: 65535
      m_AllTileFlags: 1073741825
  - first: {x: 6, y: 1, z: 0}
    second:
      serializedVersion: 2
      m_TileIndex: 51
      m_TileSpriteIndex: 51
      m_TileMatrixIndex: 0
      m_TileColorIndex: 0
      m_TileObjectToInstantiateIndex: 65535
      m_AllTileFlags: 1073741825
  - first: {x: 8, y: 1, z: 0}
    second:
      serializedVersion: 2
      m_TileIndex: 52
      m_TileSpriteIndex: 52
      m_TileMatrixIndex: 0
      m_TileColorIndex: 0
      m_TileObjectToInstantiateIndex: 65535
      m_AllTileFlags: 1073741825
  - first: {x: -10, y: 3, z: 0}
    second:
      serializedVersion: 2
      m_TileIndex: 34
      m_TileSpriteIndex: 34
      m_TileMatrixIndex: 0
      m_TileColorIndex: 0
      m_TileObjectToInstantiateIndex: 65535
      m_AllTileFlags: 1073741825
  - first: {x: -8, y: 3, z: 0}
    second:
      serializedVersion: 2
      m_TileIndex: 35
      m_TileSpriteIndex: 35
      m_TileMatrixIndex: 0
      m_TileColorIndex: 0
      m_TileObjectToInstantiateIndex: 65535
      m_AllTileFlags: 1073741825
  - first: {x: -6, y: 3, z: 0}
    second:
      serializedVersion: 2
      m_TileIndex: 36
      m_TileSpriteIndex: 36
      m_TileMatrixIndex: 0
      m_TileColorIndex: 0
      m_TileObjectToInstantiateIndex: 65535
      m_AllTileFlags: 1073741825
  - first: {x: -4, y: 3, z: 0}
    second:
      serializedVersion: 2
      m_TileIndex: 37
      m_TileSpriteIndex: 37
      m_TileMatrixIndex: 0
      m_TileColorIndex: 0
      m_TileObjectToInstantiateIndex: 65535
      m_AllTileFlags: 1073741825
  - first: {x: -3, y: 3, z: 0}
    second:
      serializedVersion: 2
      m_TileIndex: 38
      m_TileSpriteIndex: 38
      m_TileMatrixIndex: 0
      m_TileColorIndex: 0
      m_TileObjectToInstantiateIndex: 65535
      m_AllTileFlags: 1073741825
  - first: {x: -2, y: 3, z: 0}
    second:
      serializedVersion: 2
      m_TileIndex: 39
      m_TileSpriteIndex: 39
      m_TileMatrixIndex: 0
      m_TileColorIndex: 0
      m_TileObjectToInstantiateIndex: 65535
      m_AllTileFlags: 1073741825
  - first: {x: 3, y: 3, z: 0}
    second:
      serializedVersion: 2
      m_TileIndex: 40
      m_TileSpriteIndex: 40
      m_TileMatrixIndex: 0
      m_TileColorIndex: 0
      m_TileObjectToInstantiateIndex: 65535
      m_AllTileFlags: 1073741825
  - first: {x: 5, y: 3, z: 0}
    second:
      serializedVersion: 2
      m_TileIndex: 41
      m_TileSpriteIndex: 41
      m_TileMatrixIndex: 0
      m_TileColorIndex: 0
      m_TileObjectToInstantiateIndex: 65535
      m_AllTileFlags: 1073741825
  - first: {x: 9, y: 3, z: 0}
    second:
      serializedVersion: 2
      m_TileIndex: 42
      m_TileSpriteIndex: 42
      m_TileMatrixIndex: 0
      m_TileColorIndex: 0
      m_TileObjectToInstantiateIndex: 65535
      m_AllTileFlags: 1073741825
  - first: {x: 11, y: 3, z: 0}
    second:
      serializedVersion: 2
      m_TileIndex: 43
      m_TileSpriteIndex: 43
      m_TileMatrixIndex: 0
      m_TileColorIndex: 0
      m_TileObjectToInstantiateIndex: 65535
      m_AllTileFlags: 1073741825
  - first: {x: 3, y: 4, z: 0}
    second:
      serializedVersion: 2
      m_TileIndex: 30
      m_TileSpriteIndex: 30
      m_TileMatrixIndex: 0
      m_TileColorIndex: 0
      m_TileObjectToInstantiateIndex: 65535
      m_AllTileFlags: 1073741825
  - first: {x: 5, y: 4, z: 0}
    second:
      serializedVersion: 2
      m_TileIndex: 31
      m_TileSpriteIndex: 31
      m_TileMatrixIndex: 0
      m_TileColorIndex: 0
      m_TileObjectToInstantiateIndex: 65535
      m_AllTileFlags: 1073741825
  - first: {x: 9, y: 4, z: 0}
    second:
      serializedVersion: 2
      m_TileIndex: 32
      m_TileSpriteIndex: 32
      m_TileMatrixIndex: 0
      m_TileColorIndex: 0
      m_TileObjectToInstantiateIndex: 65535
      m_AllTileFlags: 1073741825
  - first: {x: 11, y: 4, z: 0}
    second:
      serializedVersion: 2
      m_TileIndex: 33
      m_TileSpriteIndex: 33
      m_TileMatrixIndex: 0
      m_TileColorIndex: 0
      m_TileObjectToInstantiateIndex: 65535
      m_AllTileFlags: 1073741825
  - first: {x: -10, y: 5, z: 0}
    second:
      serializedVersion: 2
      m_TileIndex: 23
      m_TileSpriteIndex: 23
      m_TileMatrixIndex: 0
      m_TileColorIndex: 0
      m_TileObjectToInstantiateIndex: 65535
      m_AllTileFlags: 1073741825
  - first: {x: -8, y: 5, z: 0}
    second:
      serializedVersion: 2
      m_TileIndex: 24
      m_TileSpriteIndex: 24
      m_TileMatrixIndex: 0
      m_TileColorIndex: 0
      m_TileObjectToInstantiateIndex: 65535
      m_AllTileFlags: 1073741825
  - first: {x: -6, y: 5, z: 0}
    second:
      serializedVersion: 2
      m_TileIndex: 25
      m_TileSpriteIndex: 25
      m_TileMatrixIndex: 0
      m_TileColorIndex: 0
      m_TileObjectToInstantiateIndex: 65535
      m_AllTileFlags: 1073741825
  - first: {x: -4, y: 5, z: 0}
    second:
      serializedVersion: 2
      m_TileIndex: 26
      m_TileSpriteIndex: 26
      m_TileMatrixIndex: 0
      m_TileColorIndex: 0
      m_TileObjectToInstantiateIndex: 65535
      m_AllTileFlags: 1073741825
  - first: {x: -3, y: 5, z: 0}
    second:
      serializedVersion: 2
      m_TileIndex: 27
      m_TileSpriteIndex: 27
      m_TileMatrixIndex: 0
      m_TileColorIndex: 0
      m_TileObjectToInstantiateIndex: 65535
      m_AllTileFlags: 1073741825
  - first: {x: -1, y: 5, z: 0}
    second:
      serializedVersion: 2
      m_TileIndex: 28
      m_TileSpriteIndex: 28
      m_TileMatrixIndex: 0
      m_TileColorIndex: 0
      m_TileObjectToInstantiateIndex: 65535
      m_AllTileFlags: 1073741825
  - first: {x: 0, y: 5, z: 0}
    second:
      serializedVersion: 2
      m_TileIndex: 29
      m_TileSpriteIndex: 29
      m_TileMatrixIndex: 0
      m_TileColorIndex: 0
      m_TileObjectToInstantiateIndex: 65535
      m_AllTileFlags: 1073741825
  - first: {x: 2, y: 6, z: 0}
    second:
      serializedVersion: 2
      m_TileIndex: 15
      m_TileSpriteIndex: 15
      m_TileMatrixIndex: 0
      m_TileColorIndex: 0
      m_TileObjectToInstantiateIndex: 65535
      m_AllTileFlags: 1073741825
  - first: {x: 3, y: 6, z: 0}
    second:
      serializedVersion: 2
      m_TileIndex: 16
      m_TileSpriteIndex: 16
      m_TileMatrixIndex: 0
      m_TileColorIndex: 0
      m_TileObjectToInstantiateIndex: 65535
      m_AllTileFlags: 1073741825
  - first: {x: 5, y: 6, z: 0}
    second:
      serializedVersion: 2
      m_TileIndex: 17
      m_TileSpriteIndex: 17
      m_TileMatrixIndex: 0
      m_TileColorIndex: 0
      m_TileObjectToInstantiateIndex: 65535
      m_AllTileFlags: 1073741825
  - first: {x: 6, y: 6, z: 0}
    second:
      serializedVersion: 2
      m_TileIndex: 18
      m_TileSpriteIndex: 18
      m_TileMatrixIndex: 0
      m_TileColorIndex: 0
      m_TileObjectToInstantiateIndex: 65535
      m_AllTileFlags: 1073741825
  - first: {x: 8, y: 6, z: 0}
    second:
      serializedVersion: 2
      m_TileIndex: 19
      m_TileSpriteIndex: 19
      m_TileMatrixIndex: 0
      m_TileColorIndex: 0
      m_TileObjectToInstantiateIndex: 65535
      m_AllTileFlags: 1073741825
  - first: {x: 9, y: 6, z: 0}
    second:
      serializedVersion: 2
      m_TileIndex: 20
      m_TileSpriteIndex: 20
      m_TileMatrixIndex: 0
      m_TileColorIndex: 0
      m_TileObjectToInstantiateIndex: 65535
      m_AllTileFlags: 1073741825
  - first: {x: 11, y: 6, z: 0}
    second:
      serializedVersion: 2
      m_TileIndex: 21
      m_TileSpriteIndex: 21
      m_TileMatrixIndex: 0
      m_TileColorIndex: 0
      m_TileObjectToInstantiateIndex: 65535
      m_AllTileFlags: 1073741825
  - first: {x: 12, y: 6, z: 0}
    second:
      serializedVersion: 2
      m_TileIndex: 22
      m_TileSpriteIndex: 22
      m_TileMatrixIndex: 0
      m_TileColorIndex: 0
      m_TileObjectToInstantiateIndex: 65535
      m_AllTileFlags: 1073741825
  - first: {x: -10, y: 7, z: 0}
    second:
      serializedVersion: 2
      m_TileIndex: 0
      m_TileSpriteIndex: 0
      m_TileMatrixIndex: 0
      m_TileColorIndex: 0
      m_TileObjectToInstantiateIndex: 65535
      m_AllTileFlags: 1073741825
  - first: {x: -8, y: 7, z: 0}
    second:
      serializedVersion: 2
      m_TileIndex: 1
      m_TileSpriteIndex: 1
      m_TileMatrixIndex: 0
      m_TileColorIndex: 0
      m_TileObjectToInstantiateIndex: 65535
      m_AllTileFlags: 1073741825
  - first: {x: -6, y: 7, z: 0}
    second:
      serializedVersion: 2
      m_TileIndex: 2
      m_TileSpriteIndex: 2
      m_TileMatrixIndex: 0
      m_TileColorIndex: 0
      m_TileObjectToInstantiateIndex: 65535
      m_AllTileFlags: 1073741825
  - first: {x: -4, y: 7, z: 0}
    second:
      serializedVersion: 2
      m_TileIndex: 3
      m_TileSpriteIndex: 3
      m_TileMatrixIndex: 0
      m_TileColorIndex: 0
      m_TileObjectToInstantiateIndex: 65535
      m_AllTileFlags: 1073741825
  - first: {x: -2, y: 7, z: 0}
    second:
      serializedVersion: 2
      m_TileIndex: 4
      m_TileSpriteIndex: 4
      m_TileMatrixIndex: 0
      m_TileColorIndex: 0
      m_TileObjectToInstantiateIndex: 65535
      m_AllTileFlags: 1073741825
  - first: {x: -1, y: 7, z: 0}
    second:
      serializedVersion: 2
      m_TileIndex: 5
      m_TileSpriteIndex: 5
      m_TileMatrixIndex: 0
      m_TileColorIndex: 0
      m_TileObjectToInstantiateIndex: 65535
      m_AllTileFlags: 1073741825
  - first: {x: 0, y: 7, z: 0}
    second:
      serializedVersion: 2
      m_TileIndex: 6
      m_TileSpriteIndex: 6
      m_TileMatrixIndex: 0
      m_TileColorIndex: 0
      m_TileObjectToInstantiateIndex: 65535
      m_AllTileFlags: 1073741825
  - first: {x: 2, y: 7, z: 0}
    second:
      serializedVersion: 2
      m_TileIndex: 7
      m_TileSpriteIndex: 7
      m_TileMatrixIndex: 0
      m_TileColorIndex: 0
      m_TileObjectToInstantiateIndex: 65535
      m_AllTileFlags: 1073741825
  - first: {x: 3, y: 7, z: 0}
    second:
      serializedVersion: 2
      m_TileIndex: 8
      m_TileSpriteIndex: 8
      m_TileMatrixIndex: 0
      m_TileColorIndex: 0
      m_TileObjectToInstantiateIndex: 65535
      m_AllTileFlags: 1073741825
  - first: {x: 5, y: 7, z: 0}
    second:
      serializedVersion: 2
      m_TileIndex: 9
      m_TileSpriteIndex: 9
      m_TileMatrixIndex: 0
      m_TileColorIndex: 0
      m_TileObjectToInstantiateIndex: 65535
      m_AllTileFlags: 1073741825
  - first: {x: 6, y: 7, z: 0}
    second:
      serializedVersion: 2
      m_TileIndex: 10
      m_TileSpriteIndex: 10
      m_TileMatrixIndex: 0
      m_TileColorIndex: 0
      m_TileObjectToInstantiateIndex: 65535
      m_AllTileFlags: 1073741825
  - first: {x: 8, y: 7, z: 0}
    second:
      serializedVersion: 2
      m_TileIndex: 11
      m_TileSpriteIndex: 11
      m_TileMatrixIndex: 0
      m_TileColorIndex: 0
      m_TileObjectToInstantiateIndex: 65535
      m_AllTileFlags: 1073741825
  - first: {x: 9, y: 7, z: 0}
    second:
      serializedVersion: 2
      m_TileIndex: 12
      m_TileSpriteIndex: 12
      m_TileMatrixIndex: 0
      m_TileColorIndex: 0
      m_TileObjectToInstantiateIndex: 65535
      m_AllTileFlags: 1073741825
  - first: {x: 11, y: 7, z: 0}
    second:
      serializedVersion: 2
      m_TileIndex: 13
      m_TileSpriteIndex: 13
      m_TileMatrixIndex: 0
      m_TileColorIndex: 0
      m_TileObjectToInstantiateIndex: 65535
      m_AllTileFlags: 1073741825
  - first: {x: 12, y: 7, z: 0}
    second:
      serializedVersion: 2
      m_TileIndex: 14
      m_TileSpriteIndex: 14
      m_TileMatrixIndex: 0
      m_TileColorIndex: 0
      m_TileObjectToInstantiateIndex: 65535
      m_AllTileFlags: 1073741825
  m_AnimatedTiles: {}
  m_TileAssetArray:
  - m_RefCount: 1
    m_Data: {fileID: 11400000, guid: 9e100233d234e9a4d9ca5cd9f6bee7a6, type: 2}
  - m_RefCount: 1
    m_Data: {fileID: 11400000, guid: 0ad424acf142244478b5ed74d432d4df, type: 2}
  - m_RefCount: 1
    m_Data: {fileID: 11400000, guid: 9e03fa911972c0a4f97ad23148633dd2, type: 2}
  - m_RefCount: 1
    m_Data: {fileID: 11400000, guid: 42226cf8504a3b240bf6b4dd54626652, type: 2}
  - m_RefCount: 1
    m_Data: {fileID: 11400000, guid: a7ccfb50221f5ce4f9d05ebc9db515e3, type: 2}
  - m_RefCount: 1
    m_Data: {fileID: 11400000, guid: e0b329d61b6f73b4996462b7b8bd289a, type: 2}
  - m_RefCount: 1
    m_Data: {fileID: 11400000, guid: 714b92c7386ca274da4241ab3f5ffbfa, type: 2}
  - m_RefCount: 1
    m_Data: {fileID: 11400000, guid: 579949631bdb0234c92cc01b96726ca3, type: 2}
  - m_RefCount: 1
    m_Data: {fileID: 11400000, guid: cc7707fe3773cb345be93f9316306799, type: 2}
  - m_RefCount: 1
    m_Data: {fileID: 11400000, guid: d5b492fe001ddc8488cd77960fa71cf0, type: 2}
  - m_RefCount: 1
    m_Data: {fileID: 11400000, guid: 4c329ee19896e494a878680436dcfa8b, type: 2}
  - m_RefCount: 1
    m_Data: {fileID: 11400000, guid: 7d37ff22a9969864a9bd80d001fed998, type: 2}
  - m_RefCount: 1
    m_Data: {fileID: 11400000, guid: 1e925733bb70d0c4cbf0a143a29d84e7, type: 2}
  - m_RefCount: 1
    m_Data: {fileID: 11400000, guid: a51b240b6dbd1a04297bc2ea349ee394, type: 2}
  - m_RefCount: 1
    m_Data: {fileID: 11400000, guid: 394ce18af38c46d47b9dcb70fe6bee3f, type: 2}
  - m_RefCount: 1
    m_Data: {fileID: 11400000, guid: 05013cc7a45c9ee4998a3b9ae93adf94, type: 2}
  - m_RefCount: 1
    m_Data: {fileID: 11400000, guid: c99c95d168c56344fbd6c504f98fd5a5, type: 2}
  - m_RefCount: 1
    m_Data: {fileID: 11400000, guid: 3b1988814d1cc62479df6b9e0e6c03a8, type: 2}
  - m_RefCount: 1
    m_Data: {fileID: 11400000, guid: 6566bf1b14306464ca2e7510935b1e16, type: 2}
  - m_RefCount: 1
    m_Data: {fileID: 11400000, guid: 46058a58befbc954a812e0fc17bcfb7e, type: 2}
  - m_RefCount: 1
    m_Data: {fileID: 11400000, guid: 72c35ca8d4641ed418623b68f8bf3915, type: 2}
  - m_RefCount: 1
    m_Data: {fileID: 11400000, guid: 7bea054bd3746474e8ed54e4cd6a6561, type: 2}
  - m_RefCount: 1
    m_Data: {fileID: 11400000, guid: a74eb8b920ad80e4ebfbb47bbe51a30f, type: 2}
  - m_RefCount: 1
    m_Data: {fileID: 11400000, guid: 880e380751c2acd47bf79d8f486e3a56, type: 2}
  - m_RefCount: 1
    m_Data: {fileID: 11400000, guid: ca648599fa6cf6740933267b7d8839df, type: 2}
  - m_RefCount: 1
    m_Data: {fileID: 11400000, guid: 26317584c31376d4eb252f909f9364e8, type: 2}
  - m_RefCount: 1
    m_Data: {fileID: 11400000, guid: cb149d0c4e7e4b241b70176d9f690682, type: 2}
  - m_RefCount: 1
    m_Data: {fileID: 11400000, guid: 3baf1c9b14e931c40a30c6b97c1c49b0, type: 2}
  - m_RefCount: 1
    m_Data: {fileID: 11400000, guid: 48e7f88d903d4194db880df5d12cbdcd, type: 2}
  - m_RefCount: 1
    m_Data: {fileID: 11400000, guid: a66fe582a7f44d641835bff7b2163885, type: 2}
  - m_RefCount: 1
    m_Data: {fileID: 11400000, guid: b59f998c9bddbba448a03e24f24ef45c, type: 2}
  - m_RefCount: 1
    m_Data: {fileID: 11400000, guid: 1a21b8993da9edd4c82741da219176c0, type: 2}
  - m_RefCount: 1
    m_Data: {fileID: 11400000, guid: 50c507ebb0a309f4f94f615614ebd742, type: 2}
  - m_RefCount: 1
    m_Data: {fileID: 11400000, guid: 894de2d7503b5e745b94b9c278973c08, type: 2}
  - m_RefCount: 1
    m_Data: {fileID: 11400000, guid: ebb8b16e815aeb54b9799896d7efc85e, type: 2}
  - m_RefCount: 1
    m_Data: {fileID: 11400000, guid: 5ff863c71a250e34faaa03f4b164d0fe, type: 2}
  - m_RefCount: 1
    m_Data: {fileID: 11400000, guid: ff5aede3df490314089c49bf94c56fdf, type: 2}
  - m_RefCount: 1
    m_Data: {fileID: 11400000, guid: 624e9a1b11bf537459d2516287931319, type: 2}
  - m_RefCount: 1
    m_Data: {fileID: 11400000, guid: ef5fd2d166ccf7846b9d66419f11414c, type: 2}
  - m_RefCount: 1
    m_Data: {fileID: 11400000, guid: 60127bfded6fa2e458513a632cf737a9, type: 2}
  - m_RefCount: 1
    m_Data: {fileID: 11400000, guid: e4cf5a8e0f5627a44a1d78ec1edd7159, type: 2}
  - m_RefCount: 1
    m_Data: {fileID: 11400000, guid: f6da284da1c12774586988faa82dd456, type: 2}
  - m_RefCount: 1
    m_Data: {fileID: 11400000, guid: 2e80b3fbd6f521d4383e7e80f5e456bf, type: 2}
  - m_RefCount: 1
    m_Data: {fileID: 11400000, guid: 47f1c109b5a8c6a4ebfd681c44ea2629, type: 2}
  - m_RefCount: 1
    m_Data: {fileID: 11400000, guid: 351a64a5eb0c9944eaeba4222a73559e, type: 2}
  - m_RefCount: 1
    m_Data: {fileID: 11400000, guid: e635e7135b49dff498870dde4a6bc73a, type: 2}
  - m_RefCount: 1
    m_Data: {fileID: 11400000, guid: a18c66f6e3bd74b4c9bcf9defe87584a, type: 2}
  - m_RefCount: 1
    m_Data: {fileID: 11400000, guid: cf1efa3c23812614b8b1111c08d2f45d, type: 2}
  - m_RefCount: 1
    m_Data: {fileID: 11400000, guid: ac1f8a4313687994e9be5c26c7f9ad49, type: 2}
  - m_RefCount: 1
    m_Data: {fileID: 11400000, guid: 26ba37ce81f621c42a8072647ecac7d0, type: 2}
  - m_RefCount: 1
    m_Data: {fileID: 11400000, guid: 065e2514e1cbd0f44bfbfea6f28f7b43, type: 2}
  - m_RefCount: 1
    m_Data: {fileID: 11400000, guid: 6afeed89073385649b43f2b2bee134dd, type: 2}
  - m_RefCount: 1
    m_Data: {fileID: 11400000, guid: e7873caf67844234cb2e350277233a28, type: 2}
  - m_RefCount: 1
    m_Data: {fileID: 11400000, guid: 58a65e2f32fce2e4580cfc6cdcabf26e, type: 2}
  - m_RefCount: 1
    m_Data: {fileID: 11400000, guid: a67c37593958f1f44ab60df0f7793591, type: 2}
  - m_RefCount: 1
    m_Data: {fileID: 11400000, guid: de5a9a05ce8dcb546a40cdb602f242a7, type: 2}
  - m_RefCount: 1
    m_Data: {fileID: 11400000, guid: 6bbc886424d261841a74dd5ec5b03ab6, type: 2}
  - m_RefCount: 1
    m_Data: {fileID: 11400000, guid: bbf08c9f699fe764084840f02c861d58, type: 2}
  - m_RefCount: 1
    m_Data: {fileID: 11400000, guid: 5a3b81d9ed2d3fb42958c79e90b92772, type: 2}
  - m_RefCount: 1
    m_Data: {fileID: 11400000, guid: eac707707ca13fb4bb71255a93042c35, type: 2}
  - m_RefCount: 1
    m_Data: {fileID: 11400000, guid: 30002510b6179cd4aa9534bcc250e15c, type: 2}
  - m_RefCount: 1
    m_Data: {fileID: 11400000, guid: 5778c25c1a8981643a88bccb3945785b, type: 2}
  - m_RefCount: 1
    m_Data: {fileID: 11400000, guid: 111f2557d95de10469beaa30f1ebd825, type: 2}
  - m_RefCount: 1
    m_Data: {fileID: 11400000, guid: 2f42b584239435d4f8bef7752d80800a, type: 2}
  - m_RefCount: 1
    m_Data: {fileID: 11400000, guid: fa633fd6532dc02428bf69e7c20d879a, type: 2}
  - m_RefCount: 1
    m_Data: {fileID: 11400000, guid: 48aedecc08885c04c8b8bed4478753e8, type: 2}
  - m_RefCount: 1
    m_Data: {fileID: 11400000, guid: 347b06392039c9042b3805e6fe9dd232, type: 2}
  - m_RefCount: 1
    m_Data: {fileID: 11400000, guid: a118a605c50a97b4fa54b6130181efe1, type: 2}
  - m_RefCount: 1
    m_Data: {fileID: 11400000, guid: 062c0f5f503c4244d9c0f33de213b9fe, type: 2}
  - m_RefCount: 1
    m_Data: {fileID: 11400000, guid: a519a6567abaf55478a71f76e365f49c, type: 2}
  - m_RefCount: 1
    m_Data: {fileID: 11400000, guid: 834588e26271b4b49ac260116eaeea60, type: 2}
  - m_RefCount: 1
    m_Data: {fileID: 11400000, guid: 7127db8d330dd244daaa54f8b26de316, type: 2}
  - m_RefCount: 1
    m_Data: {fileID: 11400000, guid: 650d9dede0e22524b92f342fc6a5f4ab, type: 2}
  - m_RefCount: 1
    m_Data: {fileID: 11400000, guid: 9184b5e4fe0b5044ebc1aa9b25d5682c, type: 2}
  - m_RefCount: 1
    m_Data: {fileID: 11400000, guid: fa962997730ac4c4ebec7a439b52ba7f, type: 2}
  - m_RefCount: 1
    m_Data: {fileID: 11400000, guid: 3bfc020afd55b484d9a32d23700d4341, type: 2}
  - m_RefCount: 1
    m_Data: {fileID: 11400000, guid: ba07902491346a648881271427d90e56, type: 2}
  - m_RefCount: 1
    m_Data: {fileID: 11400000, guid: 5d07a343e60881f429d4036ad5d25464, type: 2}
  - m_RefCount: 1
    m_Data: {fileID: 11400000, guid: 44935df414d41a944a1053adcc323480, type: 2}
  - m_RefCount: 1
    m_Data: {fileID: 11400000, guid: f3f27ee6f07273940a6b2da0a0a907ad, type: 2}
  - m_RefCount: 1
    m_Data: {fileID: 11400000, guid: bf79fece91ca1a54abf2d7fa15935763, type: 2}
  - m_RefCount: 1
    m_Data: {fileID: 11400000, guid: f177dffefd751db46a19cfaf8169b173, type: 2}
  - m_RefCount: 1
    m_Data: {fileID: 11400000, guid: baadbfb0bba43114b800a6f470ad2ee2, type: 2}
  - m_RefCount: 1
    m_Data: {fileID: 11400000, guid: 0fb1ab95e71c9c2429742226c2a8f91e, type: 2}
  - m_RefCount: 1
    m_Data: {fileID: 11400000, guid: 1b7121a8c2b607f45a1a093ef30a2332, type: 2}
  - m_RefCount: 1
    m_Data: {fileID: 11400000, guid: df50173d30e86894a9574fd4b8e47785, type: 2}
  - m_RefCount: 1
    m_Data: {fileID: 11400000, guid: 49af1969c1f4a2348927d61d2e4ab67e, type: 2}
  - m_RefCount: 1
    m_Data: {fileID: 11400000, guid: f8c64771abcc5b5419202e14915ea134, type: 2}
  - m_RefCount: 1
    m_Data: {fileID: 11400000, guid: 59aa40a6bc1f1ca43b475a25303ecaf7, type: 2}
  - m_RefCount: 1
    m_Data: {fileID: 11400000, guid: fef3a7f7cd42a304c9c0941bb4491721, type: 2}
  - m_RefCount: 1
    m_Data: {fileID: 11400000, guid: 11d3b728dbd2960468cda4018f275a05, type: 2}
  - m_RefCount: 1
    m_Data: {fileID: 11400000, guid: ab5baa8fd8a9eb1479cbf3b2a31d2012, type: 2}
  - m_RefCount: 1
    m_Data: {fileID: 11400000, guid: cdc61a6e0aebe9a4cb95cedcc42e75d8, type: 2}
  - m_RefCount: 1
    m_Data: {fileID: 11400000, guid: 8cb953ceb1eded847bbfe1b723270482, type: 2}
  - m_RefCount: 1
    m_Data: {fileID: 11400000, guid: 82885e43164bf0d4784a5e38f653866d, type: 2}
  - m_RefCount: 1
    m_Data: {fileID: 11400000, guid: 44c0daa43312ee545b8b035f601076ba, type: 2}
  - m_RefCount: 1
    m_Data: {fileID: 11400000, guid: e4fb7afdaf9143d448bc29fb0bbed3e4, type: 2}
  - m_RefCount: 1
    m_Data: {fileID: 11400000, guid: 79b365615a1376b45b781503c71382cc, type: 2}
  - m_RefCount: 1
    m_Data: {fileID: 11400000, guid: 2e2d758f38f68524aa6f37ed9505e754, type: 2}
  - m_RefCount: 1
    m_Data: {fileID: 11400000, guid: 69d42634d3972254abfbe3ca9eaac405, type: 2}
  - m_RefCount: 1
    m_Data: {fileID: 11400000, guid: 21342b7744026184d866e04cd663a74b, type: 2}
  - m_RefCount: 1
    m_Data: {fileID: 11400000, guid: 06b9b10250f18884dae17768610ff410, type: 2}
  - m_RefCount: 1
    m_Data: {fileID: 11400000, guid: 7ae2ec0de392d334a88f63229edccad1, type: 2}
  - m_RefCount: 1
    m_Data: {fileID: 11400000, guid: bc3a04c87a4e98b4b92ec8e384bc7749, type: 2}
  - m_RefCount: 1
    m_Data: {fileID: 11400000, guid: 9ac2603f44c3ff645bf08cc1ee494849, type: 2}
  - m_RefCount: 1
    m_Data: {fileID: 11400000, guid: 2576f9d4662ee354b8f23b256ad95c85, type: 2}
  - m_RefCount: 1
    m_Data: {fileID: 11400000, guid: 762813adc48282b44b568c70cf67ba3a, type: 2}
  - m_RefCount: 1
    m_Data: {fileID: 11400000, guid: 943446c450ba0f6499bc74fe62673985, type: 2}
  - m_RefCount: 1
    m_Data: {fileID: 11400000, guid: 4adb01666faf00644a839c5af4dc2c20, type: 2}
  - m_RefCount: 1
    m_Data: {fileID: 11400000, guid: 9a689d0d5014ec242bcb4b4ff1210ef9, type: 2}
  - m_RefCount: 1
    m_Data: {fileID: 11400000, guid: b985aa60a9456c843b692b64b5bb509c, type: 2}
  - m_RefCount: 1
    m_Data: {fileID: 11400000, guid: 0221eda70f866bd4196efd0c4e4b5243, type: 2}
  - m_RefCount: 1
    m_Data: {fileID: 11400000, guid: 7b3fc91e48013bc47860d4bbd45da516, type: 2}
  - m_RefCount: 1
    m_Data: {fileID: 11400000, guid: ee270fe36c8a5cf4ea10cf44656c0617, type: 2}
  - m_RefCount: 1
    m_Data: {fileID: 11400000, guid: aef162bcc1adc874faa63f48d34b4a5d, type: 2}
  - m_RefCount: 1
    m_Data: {fileID: 11400000, guid: 7b7510379ec989646becec49fd2dfeaf, type: 2}
  - m_RefCount: 1
    m_Data: {fileID: 11400000, guid: f821ff0a264f73c4690c2d56f5c7a1dd, type: 2}
  - m_RefCount: 1
    m_Data: {fileID: 11400000, guid: de20966c53fb8f4498bd23fb05d7d134, type: 2}
  - m_RefCount: 1
    m_Data: {fileID: 11400000, guid: 37c53a176b8ec124fa2d1e6169898855, type: 2}
  - m_RefCount: 1
    m_Data: {fileID: 11400000, guid: 4e79b265c8a95b8409b0bc299b0d8cd3, type: 2}
  - m_RefCount: 1
    m_Data: {fileID: 11400000, guid: 4ca08f3cef42f924c95d8bbed3270af0, type: 2}
  - m_RefCount: 1
    m_Data: {fileID: 11400000, guid: 6772aee5ddfc671438c832d84da43372, type: 2}
  - m_RefCount: 1
    m_Data: {fileID: 11400000, guid: 732dc6414c88b9b40adac1a14f3778cd, type: 2}
  - m_RefCount: 1
    m_Data: {fileID: 11400000, guid: fb45b09221e871544b224cad2d055d06, type: 2}
  - m_RefCount: 1
    m_Data: {fileID: 11400000, guid: 7d175a20fbea9fd4d99b817a28745163, type: 2}
  - m_RefCount: 1
    m_Data: {fileID: 11400000, guid: 2df4a22fc95701744ab1dc81507c9a14, type: 2}
  - m_RefCount: 1
    m_Data: {fileID: 11400000, guid: 563bcc75361173545b4247ffe2992689, type: 2}
  - m_RefCount: 1
    m_Data: {fileID: 11400000, guid: c6da603811447464a8d9a32c2cf15c64, type: 2}
  m_TileSpriteArray:
  - m_RefCount: 1
    m_Data: {fileID: 5663061954668274717, guid: 3b66e1a27c9634fe9a4746c47eeda7cc,
      type: 3}
  - m_RefCount: 1
    m_Data: {fileID: 6007627129536956325, guid: 3b66e1a27c9634fe9a4746c47eeda7cc,
      type: 3}
  - m_RefCount: 1
    m_Data: {fileID: -7486092956772349302, guid: 3b66e1a27c9634fe9a4746c47eeda7cc,
      type: 3}
  - m_RefCount: 1
    m_Data: {fileID: -3627264120405484348, guid: 3b66e1a27c9634fe9a4746c47eeda7cc,
      type: 3}
  - m_RefCount: 1
    m_Data: {fileID: -4815885190406460031, guid: 3b66e1a27c9634fe9a4746c47eeda7cc,
      type: 3}
  - m_RefCount: 1
    m_Data: {fileID: 7477116942032994148, guid: 3b66e1a27c9634fe9a4746c47eeda7cc,
      type: 3}
  - m_RefCount: 1
    m_Data: {fileID: -396035294860175646, guid: 3b66e1a27c9634fe9a4746c47eeda7cc,
      type: 3}
  - m_RefCount: 1
    m_Data: {fileID: 8233071653059976297, guid: 3b66e1a27c9634fe9a4746c47eeda7cc,
      type: 3}
  - m_RefCount: 1
    m_Data: {fileID: -7775419718026629507, guid: 3b66e1a27c9634fe9a4746c47eeda7cc,
      type: 3}
  - m_RefCount: 1
    m_Data: {fileID: -781294158744790408, guid: 3b66e1a27c9634fe9a4746c47eeda7cc,
      type: 3}
  - m_RefCount: 1
    m_Data: {fileID: 9061651696941551919, guid: 3b66e1a27c9634fe9a4746c47eeda7cc,
      type: 3}
  - m_RefCount: 1
    m_Data: {fileID: -6985117363303071740, guid: 3b66e1a27c9634fe9a4746c47eeda7cc,
      type: 3}
  - m_RefCount: 1
    m_Data: {fileID: 8642771837104280003, guid: 3b66e1a27c9634fe9a4746c47eeda7cc,
      type: 3}
  - m_RefCount: 1
    m_Data: {fileID: -1762573714345474896, guid: 3b66e1a27c9634fe9a4746c47eeda7cc,
      type: 3}
  - m_RefCount: 1
    m_Data: {fileID: 11442893378838041, guid: 3b66e1a27c9634fe9a4746c47eeda7cc, type: 3}
  - m_RefCount: 1
    m_Data: {fileID: -317771678647371661, guid: 3b66e1a27c9634fe9a4746c47eeda7cc,
      type: 3}
  - m_RefCount: 1
    m_Data: {fileID: -2426843357703420916, guid: 3b66e1a27c9634fe9a4746c47eeda7cc,
      type: 3}
  - m_RefCount: 1
    m_Data: {fileID: -3642208251427772964, guid: 3b66e1a27c9634fe9a4746c47eeda7cc,
      type: 3}
  - m_RefCount: 1
    m_Data: {fileID: 3985221016008397036, guid: 3b66e1a27c9634fe9a4746c47eeda7cc,
      type: 3}
  - m_RefCount: 1
    m_Data: {fileID: 5778961287088506303, guid: 3b66e1a27c9634fe9a4746c47eeda7cc,
      type: 3}
  - m_RefCount: 1
    m_Data: {fileID: 8758155216525550727, guid: 3b66e1a27c9634fe9a4746c47eeda7cc,
      type: 3}
  - m_RefCount: 1
    m_Data: {fileID: 6116080786932476827, guid: 3b66e1a27c9634fe9a4746c47eeda7cc,
      type: 3}
  - m_RefCount: 1
    m_Data: {fileID: -1385786070971223102, guid: 3b66e1a27c9634fe9a4746c47eeda7cc,
      type: 3}
  - m_RefCount: 1
    m_Data: {fileID: -538331831730588137, guid: 3b66e1a27c9634fe9a4746c47eeda7cc,
      type: 3}
  - m_RefCount: 1
    m_Data: {fileID: -6923900727490736670, guid: 3b66e1a27c9634fe9a4746c47eeda7cc,
      type: 3}
  - m_RefCount: 1
    m_Data: {fileID: 5043307788359985916, guid: 3b66e1a27c9634fe9a4746c47eeda7cc,
      type: 3}
  - m_RefCount: 1
    m_Data: {fileID: -5587653796134901919, guid: 3b66e1a27c9634fe9a4746c47eeda7cc,
      type: 3}
  - m_RefCount: 1
    m_Data: {fileID: -4272949958406870782, guid: 3b66e1a27c9634fe9a4746c47eeda7cc,
      type: 3}
  - m_RefCount: 1
    m_Data: {fileID: -4827537604736492380, guid: 3b66e1a27c9634fe9a4746c47eeda7cc,
      type: 3}
  - m_RefCount: 1
    m_Data: {fileID: 4021183171127385890, guid: 3b66e1a27c9634fe9a4746c47eeda7cc,
      type: 3}
  - m_RefCount: 1
    m_Data: {fileID: -7967309640338825673, guid: 3b66e1a27c9634fe9a4746c47eeda7cc,
      type: 3}
  - m_RefCount: 1
    m_Data: {fileID: 1237908169197521079, guid: 3b66e1a27c9634fe9a4746c47eeda7cc,
      type: 3}
  - m_RefCount: 1
    m_Data: {fileID: 5018706250341604807, guid: 3b66e1a27c9634fe9a4746c47eeda7cc,
      type: 3}
  - m_RefCount: 1
    m_Data: {fileID: -6468910726198660926, guid: 3b66e1a27c9634fe9a4746c47eeda7cc,
      type: 3}
  - m_RefCount: 1
    m_Data: {fileID: -6157781805458569218, guid: 3b66e1a27c9634fe9a4746c47eeda7cc,
      type: 3}
  - m_RefCount: 1
    m_Data: {fileID: 3048538982666575687, guid: 3b66e1a27c9634fe9a4746c47eeda7cc,
      type: 3}
  - m_RefCount: 1
    m_Data: {fileID: -1518774645772049220, guid: 3b66e1a27c9634fe9a4746c47eeda7cc,
      type: 3}
  - m_RefCount: 1
    m_Data: {fileID: -3697150339598545061, guid: 3b66e1a27c9634fe9a4746c47eeda7cc,
      type: 3}
  - m_RefCount: 1
    m_Data: {fileID: -7131273655155896711, guid: 3b66e1a27c9634fe9a4746c47eeda7cc,
      type: 3}
  - m_RefCount: 1
    m_Data: {fileID: 8621815960616643281, guid: 3b66e1a27c9634fe9a4746c47eeda7cc,
      type: 3}
  - m_RefCount: 1
    m_Data: {fileID: -6205172343615221245, guid: 3b66e1a27c9634fe9a4746c47eeda7cc,
      type: 3}
  - m_RefCount: 1
    m_Data: {fileID: 7654806567737475841, guid: 3b66e1a27c9634fe9a4746c47eeda7cc,
      type: 3}
  - m_RefCount: 1
    m_Data: {fileID: -1702772467812443111, guid: 3b66e1a27c9634fe9a4746c47eeda7cc,
      type: 3}
  - m_RefCount: 1
    m_Data: {fileID: 576860350140093190, guid: 3b66e1a27c9634fe9a4746c47eeda7cc, type: 3}
  - m_RefCount: 1
    m_Data: {fileID: 5547708042039842948, guid: 3b66e1a27c9634fe9a4746c47eeda7cc,
      type: 3}
  - m_RefCount: 1
    m_Data: {fileID: -6017339223957375553, guid: 3b66e1a27c9634fe9a4746c47eeda7cc,
      type: 3}
  - m_RefCount: 1
    m_Data: {fileID: -4116040823106012581, guid: 3b66e1a27c9634fe9a4746c47eeda7cc,
      type: 3}
  - m_RefCount: 1
    m_Data: {fileID: 6732870910531023, guid: 3b66e1a27c9634fe9a4746c47eeda7cc, type: 3}
  - m_RefCount: 1
    m_Data: {fileID: -6831599063569703212, guid: 3b66e1a27c9634fe9a4746c47eeda7cc,
      type: 3}
  - m_RefCount: 1
    m_Data: {fileID: -5016527918528981960, guid: 3b66e1a27c9634fe9a4746c47eeda7cc,
      type: 3}
  - m_RefCount: 1
    m_Data: {fileID: 3885819281616729284, guid: 3b66e1a27c9634fe9a4746c47eeda7cc,
      type: 3}
  - m_RefCount: 1
    m_Data: {fileID: 9192141375248400463, guid: 3b66e1a27c9634fe9a4746c47eeda7cc,
      type: 3}
  - m_RefCount: 1
    m_Data: {fileID: 293392773991598977, guid: 3b66e1a27c9634fe9a4746c47eeda7cc, type: 3}
  - m_RefCount: 1
    m_Data: {fileID: -1978880106863730396, guid: 3b66e1a27c9634fe9a4746c47eeda7cc,
      type: 3}
  - m_RefCount: 1
    m_Data: {fileID: 2815510966112240897, guid: 3b66e1a27c9634fe9a4746c47eeda7cc,
      type: 3}
  - m_RefCount: 1
    m_Data: {fileID: 3461855256792236426, guid: 3b66e1a27c9634fe9a4746c47eeda7cc,
      type: 3}
  - m_RefCount: 1
    m_Data: {fileID: -4909924010071155561, guid: 3b66e1a27c9634fe9a4746c47eeda7cc,
      type: 3}
  - m_RefCount: 1
    m_Data: {fileID: -6748938332277025590, guid: 3b66e1a27c9634fe9a4746c47eeda7cc,
      type: 3}
  - m_RefCount: 1
    m_Data: {fileID: 2177024245305386223, guid: 3b66e1a27c9634fe9a4746c47eeda7cc,
      type: 3}
  - m_RefCount: 1
    m_Data: {fileID: 1510392478064077718, guid: 3b66e1a27c9634fe9a4746c47eeda7cc,
      type: 3}
  - m_RefCount: 1
    m_Data: {fileID: -5726643437316625391, guid: 3b66e1a27c9634fe9a4746c47eeda7cc,
      type: 3}
  - m_RefCount: 1
    m_Data: {fileID: 5224892034047083157, guid: 3b66e1a27c9634fe9a4746c47eeda7cc,
      type: 3}
  - m_RefCount: 1
    m_Data: {fileID: 1053245576194407766, guid: 3b66e1a27c9634fe9a4746c47eeda7cc,
      type: 3}
  - m_RefCount: 1
    m_Data: {fileID: 1077660200836561826, guid: 3b66e1a27c9634fe9a4746c47eeda7cc,
      type: 3}
  - m_RefCount: 1
    m_Data: {fileID: -5265849548139384413, guid: 3b66e1a27c9634fe9a4746c47eeda7cc,
      type: 3}
  - m_RefCount: 1
    m_Data: {fileID: 6418657867545673408, guid: 3b66e1a27c9634fe9a4746c47eeda7cc,
      type: 3}
  - m_RefCount: 1
    m_Data: {fileID: 6264988462522759893, guid: 3b66e1a27c9634fe9a4746c47eeda7cc,
      type: 3}
  - m_RefCount: 1
    m_Data: {fileID: 2204049225861295520, guid: 3b66e1a27c9634fe9a4746c47eeda7cc,
      type: 3}
  - m_RefCount: 1
    m_Data: {fileID: -4605163527387846987, guid: 3b66e1a27c9634fe9a4746c47eeda7cc,
      type: 3}
  - m_RefCount: 1
    m_Data: {fileID: -8673441916583476125, guid: 3b66e1a27c9634fe9a4746c47eeda7cc,
      type: 3}
  - m_RefCount: 1
    m_Data: {fileID: 2160675205206706675, guid: 3b66e1a27c9634fe9a4746c47eeda7cc,
      type: 3}
  - m_RefCount: 1
    m_Data: {fileID: -1040992118310419130, guid: 3b66e1a27c9634fe9a4746c47eeda7cc,
      type: 3}
  - m_RefCount: 1
    m_Data: {fileID: -5859045247806993216, guid: 3b66e1a27c9634fe9a4746c47eeda7cc,
      type: 3}
  - m_RefCount: 1
    m_Data: {fileID: 1946776270529680156, guid: 3b66e1a27c9634fe9a4746c47eeda7cc,
      type: 3}
  - m_RefCount: 1
    m_Data: {fileID: 3679769539610414968, guid: 3b66e1a27c9634fe9a4746c47eeda7cc,
      type: 3}
  - m_RefCount: 1
    m_Data: {fileID: -133517962813326697, guid: 3b66e1a27c9634fe9a4746c47eeda7cc,
      type: 3}
  - m_RefCount: 1
    m_Data: {fileID: 974969132830988049, guid: 3b66e1a27c9634fe9a4746c47eeda7cc, type: 3}
  - m_RefCount: 1
    m_Data: {fileID: 54813008368543375, guid: 3b66e1a27c9634fe9a4746c47eeda7cc, type: 3}
  - m_RefCount: 1
    m_Data: {fileID: -1111467040747940836, guid: 3b66e1a27c9634fe9a4746c47eeda7cc,
      type: 3}
  - m_RefCount: 1
    m_Data: {fileID: 4539572432158512276, guid: 3b66e1a27c9634fe9a4746c47eeda7cc,
      type: 3}
  - m_RefCount: 1
    m_Data: {fileID: -440094530379634619, guid: 3b66e1a27c9634fe9a4746c47eeda7cc,
      type: 3}
  - m_RefCount: 1
    m_Data: {fileID: 8436483236309373761, guid: 3b66e1a27c9634fe9a4746c47eeda7cc,
      type: 3}
  - m_RefCount: 1
    m_Data: {fileID: -9128652258105010429, guid: 3b66e1a27c9634fe9a4746c47eeda7cc,
      type: 3}
  - m_RefCount: 1
    m_Data: {fileID: 5991473849112003203, guid: 3b66e1a27c9634fe9a4746c47eeda7cc,
      type: 3}
  - m_RefCount: 1
    m_Data: {fileID: 4330230722670678443, guid: 3b66e1a27c9634fe9a4746c47eeda7cc,
      type: 3}
  - m_RefCount: 1
    m_Data: {fileID: -1691220034148343436, guid: 3b66e1a27c9634fe9a4746c47eeda7cc,
      type: 3}
  - m_RefCount: 1
    m_Data: {fileID: 5437897656927332739, guid: 3b66e1a27c9634fe9a4746c47eeda7cc,
      type: 3}
  - m_RefCount: 1
    m_Data: {fileID: 1307626347214929657, guid: 3b66e1a27c9634fe9a4746c47eeda7cc,
      type: 3}
  - m_RefCount: 1
    m_Data: {fileID: 6276069379633589520, guid: 3b66e1a27c9634fe9a4746c47eeda7cc,
      type: 3}
  - m_RefCount: 1
    m_Data: {fileID: 3608026245190458011, guid: 3b66e1a27c9634fe9a4746c47eeda7cc,
      type: 3}
  - m_RefCount: 1
    m_Data: {fileID: -9167755149240453841, guid: 3b66e1a27c9634fe9a4746c47eeda7cc,
      type: 3}
  - m_RefCount: 1
    m_Data: {fileID: -3026403903459387518, guid: 3b66e1a27c9634fe9a4746c47eeda7cc,
      type: 3}
  - m_RefCount: 1
    m_Data: {fileID: -912226708761013127, guid: 3b66e1a27c9634fe9a4746c47eeda7cc,
      type: 3}
  - m_RefCount: 1
    m_Data: {fileID: 64046951760991985, guid: 3b66e1a27c9634fe9a4746c47eeda7cc, type: 3}
  - m_RefCount: 1
    m_Data: {fileID: 6731733094262721628, guid: 3b66e1a27c9634fe9a4746c47eeda7cc,
      type: 3}
  - m_RefCount: 1
    m_Data: {fileID: 1018328791618719094, guid: 3b66e1a27c9634fe9a4746c47eeda7cc,
      type: 3}
  - m_RefCount: 1
    m_Data: {fileID: -2209401061123471698, guid: 3b66e1a27c9634fe9a4746c47eeda7cc,
      type: 3}
  - m_RefCount: 1
    m_Data: {fileID: -798795321885504356, guid: 3b66e1a27c9634fe9a4746c47eeda7cc,
      type: 3}
  - m_RefCount: 1
    m_Data: {fileID: 2734534193476647528, guid: 3b66e1a27c9634fe9a4746c47eeda7cc,
      type: 3}
  - m_RefCount: 1
    m_Data: {fileID: 4676232042555661266, guid: 3b66e1a27c9634fe9a4746c47eeda7cc,
      type: 3}
  - m_RefCount: 1
    m_Data: {fileID: 26675975723062386, guid: 3b66e1a27c9634fe9a4746c47eeda7cc, type: 3}
  - m_RefCount: 1
    m_Data: {fileID: 4060546897201354903, guid: 3b66e1a27c9634fe9a4746c47eeda7cc,
      type: 3}
  - m_RefCount: 1
    m_Data: {fileID: -1824318353210508716, guid: 3b66e1a27c9634fe9a4746c47eeda7cc,
      type: 3}
  - m_RefCount: 1
    m_Data: {fileID: 5679421691457111198, guid: 3b66e1a27c9634fe9a4746c47eeda7cc,
      type: 3}
  - m_RefCount: 1
    m_Data: {fileID: 4072258924830223602, guid: 3b66e1a27c9634fe9a4746c47eeda7cc,
      type: 3}
  - m_RefCount: 1
    m_Data: {fileID: -449521129324896115, guid: 3b66e1a27c9634fe9a4746c47eeda7cc,
      type: 3}
  - m_RefCount: 1
    m_Data: {fileID: -4069433135438937170, guid: 3b66e1a27c9634fe9a4746c47eeda7cc,
      type: 3}
  - m_RefCount: 1
    m_Data: {fileID: -3988596780175509632, guid: 3b66e1a27c9634fe9a4746c47eeda7cc,
      type: 3}
  - m_RefCount: 1
    m_Data: {fileID: -2927467422400913361, guid: 3b66e1a27c9634fe9a4746c47eeda7cc,
      type: 3}
  - m_RefCount: 1
    m_Data: {fileID: 7520313796697013927, guid: 3b66e1a27c9634fe9a4746c47eeda7cc,
      type: 3}
  - m_RefCount: 1
    m_Data: {fileID: 1372472711436484874, guid: 3b66e1a27c9634fe9a4746c47eeda7cc,
      type: 3}
  - m_RefCount: 1
    m_Data: {fileID: -5784052603835726715, guid: 3b66e1a27c9634fe9a4746c47eeda7cc,
      type: 3}
  - m_RefCount: 1
    m_Data: {fileID: -1807440466647841244, guid: 3b66e1a27c9634fe9a4746c47eeda7cc,
      type: 3}
  - m_RefCount: 1
    m_Data: {fileID: -3777550615242853001, guid: 3b66e1a27c9634fe9a4746c47eeda7cc,
      type: 3}
  - m_RefCount: 1
    m_Data: {fileID: 6187717847525548743, guid: 3b66e1a27c9634fe9a4746c47eeda7cc,
      type: 3}
  - m_RefCount: 1
    m_Data: {fileID: -4680151985043211058, guid: 3b66e1a27c9634fe9a4746c47eeda7cc,
      type: 3}
  - m_RefCount: 1
    m_Data: {fileID: 6222405554938725553, guid: 3b66e1a27c9634fe9a4746c47eeda7cc,
      type: 3}
  - m_RefCount: 1
    m_Data: {fileID: 7365494074633768783, guid: 3b66e1a27c9634fe9a4746c47eeda7cc,
      type: 3}
  - m_RefCount: 1
    m_Data: {fileID: -2936289823458937912, guid: 3b66e1a27c9634fe9a4746c47eeda7cc,
      type: 3}
  - m_RefCount: 1
    m_Data: {fileID: -9178284988810271814, guid: 3b66e1a27c9634fe9a4746c47eeda7cc,
      type: 3}
  - m_RefCount: 1
    m_Data: {fileID: -6646765574518339977, guid: 3b66e1a27c9634fe9a4746c47eeda7cc,
      type: 3}
  - m_RefCount: 1
    m_Data: {fileID: -362684925555704359, guid: 3b66e1a27c9634fe9a4746c47eeda7cc,
      type: 3}
  - m_RefCount: 1
    m_Data: {fileID: -7521506733355556346, guid: 3b66e1a27c9634fe9a4746c47eeda7cc,
      type: 3}
  - m_RefCount: 1
    m_Data: {fileID: 5906929534726048222, guid: 3b66e1a27c9634fe9a4746c47eeda7cc,
      type: 3}
  - m_RefCount: 1
    m_Data: {fileID: -6448477584000896110, guid: 3b66e1a27c9634fe9a4746c47eeda7cc,
      type: 3}
  - m_RefCount: 1
    m_Data: {fileID: 8428129474414255811, guid: 3b66e1a27c9634fe9a4746c47eeda7cc,
      type: 3}
  - m_RefCount: 1
    m_Data: {fileID: -1012056433526176113, guid: 3b66e1a27c9634fe9a4746c47eeda7cc,
      type: 3}
  - m_RefCount: 1
    m_Data: {fileID: -2637164433561087041, guid: 3b66e1a27c9634fe9a4746c47eeda7cc,
      type: 3}
  m_TileMatrixArray:
  - m_RefCount: 128
    m_Data:
      e00: 1
      e01: 0
      e02: 0
      e03: 0
      e10: 0
      e11: 1
      e12: 0
      e13: 0
      e20: 0
      e21: 0
      e22: 1
      e23: 0
      e30: 0
      e31: 0
      e32: 0
      e33: 1
  m_TileColorArray:
  - m_RefCount: 128
    m_Data: {r: 1, g: 1, b: 1, a: 1}
  m_TileObjectToInstantiateArray: []
  m_AnimationFrameRate: 1
  m_Color: {r: 1, g: 1, b: 1, a: 1}
  m_Origin: {x: -10, y: -13, z: 0}
  m_Size: {x: 23, y: 21, z: 1}
  m_TileAnchor: {x: 0.5, y: 0.5, z: 0}
  m_TileOrientation: 0
  m_TileOrientationMatrix:
    e00: 1
    e01: 0
    e02: 0
    e03: 0
    e10: 0
    e11: 1
    e12: 0
    e13: 0
    e20: 0
    e21: 0
    e22: 1
    e23: 0
    e30: 0
    e31: 0
    e32: 0
    e33: 1
--- !u!483693784 &129887723679713110
TilemapRenderer:
  m_ObjectHideFlags: 0
  m_CorrespondingSourceObject: {fileID: 0}
  m_PrefabInstance: {fileID: 0}
  m_PrefabAsset: {fileID: 0}
  m_GameObject: {fileID: 5131868116886849978}
  m_Enabled: 0
  m_CastShadows: 0
  m_ReceiveShadows: 0
  m_DynamicOccludee: 0
  m_MotionVectors: 1
  m_LightProbeUsage: 0
  m_ReflectionProbeUsage: 0
  m_RayTracingMode: 0
  m_RenderingLayerMask: 1
  m_RendererPriority: 0
  m_Materials:
  - {fileID: 10754, guid: 0000000000000000f000000000000000, type: 0}
  m_StaticBatchInfo:
    firstSubMesh: 0
    subMeshCount: 0
  m_StaticBatchRoot: {fileID: 0}
  m_ProbeAnchor: {fileID: 0}
  m_LightProbeVolumeOverride: {fileID: 0}
  m_ScaleInLightmap: 1
  m_ReceiveGI: 1
  m_PreserveUVs: 0
  m_IgnoreNormalsForChartDetection: 0
  m_ImportantGI: 0
  m_StitchLightmapSeams: 1
  m_SelectedEditorRenderState: 0
  m_MinimumChartSize: 4
  m_AutoUVMaxDistance: 0.5
  m_AutoUVMaxAngle: 89
  m_LightmapParameters: {fileID: 0}
  m_SortingLayerID: 0
  m_SortingLayer: 0
  m_SortingOrder: 0
  m_ChunkSize: {x: 32, y: 32, z: 32}
  m_ChunkCullingBounds: {x: 0, y: 0, z: 0}
  m_MaxChunkCount: 16
  m_MaxFrameAge: 16
  m_SortOrder: 0
  m_Mode: 0
  m_DetectChunkCullingBounds: 0
  m_MaskInteraction: 0
--- !u!1 &7223614460126135583
GameObject:
  m_ObjectHideFlags: 0
  m_CorrespondingSourceObject: {fileID: 0}
  m_PrefabInstance: {fileID: 0}
  m_PrefabAsset: {fileID: 0}
  serializedVersion: 6
  m_Component:
  - component: {fileID: 1865578796898546717}
  - component: {fileID: 1043708055086992223}
  m_Layer: 31
  m_Name: TilesetMap
  m_TagString: Untagged
  m_Icon: {fileID: 0}
  m_NavMeshLayer: 0
  m_StaticEditorFlags: 0
  m_IsActive: 1
--- !u!4 &1865578796898546717
Transform:
  m_ObjectHideFlags: 0
  m_CorrespondingSourceObject: {fileID: 0}
  m_PrefabInstance: {fileID: 0}
  m_PrefabAsset: {fileID: 0}
  m_GameObject: {fileID: 7223614460126135583}
  m_LocalRotation: {x: 0, y: 0, z: 0, w: 1}
  m_LocalPosition: {x: 0, y: 0, z: 0}
  m_LocalScale: {x: 1, y: 1, z: 1}
  m_Children:
  - {fileID: 2084166624738206769}
  m_Father: {fileID: 0}
  m_RootOrder: 0
  m_LocalEulerAnglesHint: {x: 0, y: 0, z: 0}
--- !u!156049354 &1043708055086992223
Grid:
  m_ObjectHideFlags: 0
  m_CorrespondingSourceObject: {fileID: 0}
  m_PrefabInstance: {fileID: 0}
  m_PrefabAsset: {fileID: 0}
  m_GameObject: {fileID: 7223614460126135583}
  m_Enabled: 1
  m_CellSize: {x: 1, y: 1, z: 0}
  m_CellGap: {x: 0, y: 0, z: 0}
  m_CellLayout: 0
  m_CellSwizzle: 0
--- !u!114 &5062950228298757521
MonoBehaviour:
  m_ObjectHideFlags: 0
  m_CorrespondingSourceObject: {fileID: 0}
  m_PrefabInstance: {fileID: 0}
  m_PrefabAsset: {fileID: 0}
  m_GameObject: {fileID: 0}
  m_Enabled: 1
  m_EditorHideFlags: 0
  m_Script: {fileID: 12395, guid: 0000000000000000e000000000000000, type: 0}
  m_Name: Palette Settings
  m_EditorClassIdentifier: 
  cellSizing: 0
